…
#### ii. Summary table for total number of purple urchins by site and year


```r
purple_urchins_table <- purple_urchins %>%
  group_by(site_full, year) %>%
  count()

purple_urchins_table
```

```
## # A tibble: 61 x 3
## # Groups:   site_full, year [61]
##    site_full            year     n
##    <chr>               <dbl> <int>
##  1 Arroyo Quemado Reef  2008    67
##  2 Arroyo Quemado Reef  2009   926
##  3 Arroyo Quemado Reef  2010   921
##  4 Arroyo Quemado Reef  2011   887
##  5 Arroyo Quemado Reef  2012   764
##  6 Arroyo Quemado Reef  2013   434
##  7 Arroyo Quemado Reef  2014   410
##  8 Arroyo Quemado Reef  2015   400
##  9 Arroyo Quemado Reef  2016   342
## 10 Arroyo Quemado Reef  2017   406
## # ... with 51 more rows
```
…
